{
  "required": true,
  "minVersion": "0.8",
  "package": "us.mikebartosh.minecraft.limitlessbanners.mixin",
  "compatibilityLevel": "JAVA_21",
  "mixins": [
    "MixinBannerDuplicateRecipe",
    "MixinBannerItem",
    "MixinLoomScreenHandler"
  ],
  "client": [
    "MixinLoomScreen"
  ],
  "injectors": {
    "defaultRequire": 1
  }
}
